…
    ## # A tibble: 1 x 7
    ##   null.deviance df.null  logLik    AIC    BIC   deviance df.residual
    ##           <dbl>   <int>   <dbl>  <dbl>  <dbl>      <dbl>       <int>
    ## 1   1138652193.    4341 -30655. 61324. 61369. 344812662.        4336

As a final step, we'll examine a full model and see if there are any variables that might be included as well, based on their effect sizes and p-values.

``` r
birthweight %>%
  glm(data = ., bwt ~ .) %>% 
  broom::tidy() %>% 
  arrange(p.value)
```

    ## # A tibble: 22 x 5
    ##    term           estimate std.error statistic   p.value
    ##    <chr>             <dbl>     <dbl>     <dbl>     <dbl>
    ##  1 bhead           131.        3.45      37.9  2.16e-271
    ##  2 blength          75.0       2.02      37.1  1.75e-261
    ##  3 delwt             4.10      0.395     10.4  5.62e- 25
    ##  4 (Intercept)   -6265.      660.        -9.49 3.81e- 21
    ##  5 smoken           -4.85      0.587     -8.27 1.78e- 16
    ##  6 gaweeks          11.5       1.47       7.88 4.06e- 15
    ##  7 babysexfemale    28.7       8.47       3.39 7.02e-  4
    ##  8 mrace2         -151.       46.0       -3.29 1.01e-  3
    ##  9 parity           95.5      40.5        2.36 1.83e-  2
    ## 10 fincome           0.290     0.180      1.61 1.07e-  1
    ## # ... with 12 more rows
…
